net developpement
pl Conception_ready (1)
pl Conception_started (0)
pl Conception_wasstarted (0)
pl Conception_finished (0)
pl RedactionDoc_ready (1)
pl RedactionDoc_started (0)
pl RedactionDoc_wasstarted (0)
pl RedactionDoc_finished (0)
pl Developpement_ready (1)
pl Developpement_started (0)
pl Developpement_wasstarted (0)
pl Developpement_finished (0)
pl RedactionTests_ready (1)
pl RedactionTests_started (0)
pl RedactionTests_wasstarted (0)
pl RedactionTests_finished (0)
tr Conception_start [0,0] Conception_ready -> Conception_started Conception_wasstarted
tr Conception_finish [0,0] Conception_started -> Conception_finished
tr RedactionDoc_start [0,0] RedactionDoc_ready Conception_wasstarted?1 -> RedactionDoc_started RedactionDoc_wasstarted
tr RedactionDoc_finish [0,0] RedactionDoc_started Conception_finished?1 -> RedactionDoc_finished
tr Developpement_start [0,0] Developpement_ready Conception_finished?1 -> Developpement_started Developpement_wasstarted
tr Developpement_finish [0,0] Developpement_started -> Developpement_finished
tr RedactionTests_start [0,0] RedactionTests_ready Conception_wasstarted?1 -> RedactionTests_started RedactionTests_wasstarted
tr RedactionTests_finish [0,0] RedactionTests_started Developpement_finished?1 -> RedactionTests_finished
