tr System_proc_start [0,0] System_proc_idle -> System_proc_run System_early Conception_ready Development_ready
tr System_t_time_over [30,30] System_on_time System_proc_run?1 -> System_too_late
tr System_t_on_time [20,20] System_early System_proc_run?1 -> System_on_time
tr System_proc_finish [0,w[ System_proc_run Conception_finished Development_finished -> System_proc_finished
tr Conception_start [0,w[ Conception_ready res_Concepteur*2 res_Machine*2 -> Conception_started*2 Conception_wasstarted Conception_early
tr Conception_finish [0,w[ Conception_started*2 -> Conception_wasfinished Conception_finished res_Concepteur*2 res_Machine*2
tr Conception_t_check_on_time [10,10] Conception_early Conception_started?1 -> Conception_on_time
tr Conception_t_time_over [6,6] Conception_on_time Conception_started?1 -> Conception_too_late
tr Conception_recover [0,w[ Conception_paused res_Concepteur*2 res_Machine*2 -> Conception_started
tr Development_start [0,w[ Development_ready res_Developpeur*2 res_Machine*3 -> Development_started*2 Development_wasstarted Development_early
tr Development_t_check_on_time [12,12] Development_early Development_started?1 -> Development_on_time
tr Development_pause [0,w[ Development_started -> Development_paused res_Developpeur*2 res_Machine*3
tr Development_recover [0,w[ Development_paused res_Developpeur*2 res_Machine*3 -> Development_started
tr Development_finish [0,w[ Development_started*2 -> Development_wasfinished Development_finished res_Developpeur*2 res_Machine*3
tr Development_t_time_over [2,2] Development_on_time Development_started?1 -> Development_too_late
tr Conception_pause [0,w[ Conception_started -> Conception_paused res_Concepteur*2 res_Machine*2
pl System_proc_idle (1)
pl res_Concepteur (3)
pl res_Machine (4)
pl res_Developpeur (2)
net System

